<?xml version="1.0" encoding="utf-8"?>
<!-- Generator: Adobe Illustrator 19.0.0, SVG Export Plug-In . SVG Version: 6.00 Build 0)  -->
<svg version="1.1" id="Layer_1" xmlns="http://www.w3.org/2000/svg" xmlns:xlink="http://www.w3.org/1999/xlink" x="0px" y="0px"
	 viewBox="-242 347.6 110.9 147.3" style="enable-background:new -242 347.6 110.9 147.3;" xml:space="preserve">
<style type="text/css">
	.st0{opacity:0.4;fill:#B9B8B8;enable-background:new    ;}
	.st1{fill:#FBEECC;}
	.st2{fill:#D36766;}
	.st3{fill:#B85A5A;}
	.st4{fill:#E8C252;}
	.st5{fill:#F7E2A6;}
	.st6{fill:#FFFFFF;}
	.st7{fill:#65A9DF;}
	.st8{fill:#9BCCE7;}
</style>
<g>
	<g>
		<ellipse class="st0" cx="-186.6" cy="476" rx="37.3" ry="13.6"/>
		<g>
			<g>
				<path class="st1" d="M-197.9,395.2"/>
				<path class="st2" d="M-174.6,386.3c0,6-5.6,10.9-12.5,10.9c-6.9,0-12.5-4.9-12.5-10.9H-174.6z"/>
				<path class="st3" d="M-185.9,387c0,0,1.5,2,0,4.8c-1.5,2.7-7.9,2.6-9.4,1.4c0,0,3.8,4.2,11.3,2.7c8.2-1.6,8.2-9.4,8.2-9.4
					L-185.9,387z"/>
				<path class="st4" d="M-173.4,385.7c0,0.8-0.6,1.4-1.4,1.4h-24.1c-0.8,0-1.4-0.6-1.4-1.4l0,0c0-0.8,0.6-1.4,1.4-1.4h24.1
					C-173.9,384.3-173.4,384.9-173.4,385.7L-173.4,385.7z"/>
				<path class="st5" d="M-198.8,384.3c0,0-1.1,0.2-0.5,1.4c0.6,1.3,19.2-1.4,21-1.4H-198.8z"/>
				<circle class="st6" cx="-180.9" cy="400" r="4"/>
				<circle class="st6" cx="-193.6" cy="400" r="4"/>
				<path class="st7" d="M-193.6,395.1c-2.7,0-4.9,2.2-4.9,4.9c0,2.7,2.2,4.9,4.9,4.9s4.9-2.2,4.9-4.9
					C-188.6,397.3-190.9,395.1-193.6,395.1z M-193.6,403.3c-1.9,0-3.4-1.5-3.4-3.4s1.5-3.4,3.4-3.4c1.9,0,3.4,1.5,3.4,3.4
					S-191.6,403.3-193.6,403.3z"/>
				<path class="st7" d="M-180.9,395.1c-2.7,0-4.9,2.2-4.9,4.9c0,2.7,2.2,4.9,4.9,4.9s4.9-2.2,4.9-4.9
					C-176.1,397.3-178.1,395.1-180.9,395.1z M-180.9,403.3c-1.9,0-3.4-1.5-3.4-3.4s1.5-3.4,3.4-3.4c1.9,0,3.4,1.5,3.4,3.4
					C-177.6,401.8-179.1,403.3-180.9,403.3z"/>
				<path class="st8" d="M-172.4,381.8l-0.1-0.5c-0.2-1.1-1.3-3.4-1.9-4.3l-0.3-0.4c-0.6-0.9-2.5-2.7-3.4-3.3l-0.4-0.3
					c-0.9-0.6-3.3-1.5-4.4-1.7l-0.5-0.1c-1.1-0.2-3.7-0.1-4.7,0.1l-0.5,0.1c-1.2,0.2-1.9,1.2-1.7,2.1l4.5,10.8l0.4-0.1h0.1h0.1
					l0.1,0.1l0.1,0.2l11.7-0.3C-172.8,384-172.1,382.9-172.4,381.8z"/>
				<path class="st7" d="M-173.8,382l-0.1-0.5c-0.2-0.9-1.1-3-1.6-3.8l-0.3-0.4c-0.6-0.8-2.3-2.3-3.1-2.8l-0.4-0.3
					c-0.8-0.5-2.9-1.3-3.8-1.5l-0.5-0.1c-0.9-0.2-3.2-0.1-4.1,0.1l-0.4,0.2c-1,0.2-1.7,1-1.5,1.8l3.9,9.3l0.3-0.1h0.1h0.1l0.1,0.1
					v0.2l10.2-0.2C-174.1,383.9-173.6,383-173.8,382z"/>
				<path class="st2" d="M-189.9,371.9c-0.4,0.4-0.7,1-0.6,1.5l4.5,10.8l0.4-0.1h0.1h0.1l0.1,0.1l0.1,0.2h0.8
					C-184.6,384.5-189.9,371.8-189.9,371.9z"/>
				<circle class="st4" cx="-185.8" cy="384.2" r="1.5"/>
				<circle class="st5" cx="-185.8" cy="384.2" r="0.9"/>
			</g>
			<g>
				<path class="st2" d="M-210.6,390c0-13.4,10.9-24.3,24.3-24.3v-12.8c-20.5,0-37.1,16.6-37.1,37.1s37.1,85.9,37.1,85.9v-61.6
					C-199.8,414.2-210.6,403.4-210.6,390z"/>
				<path class="st2" d="M-186.9,352.9l0.1,12.8c0.6-0.1,1.8,0.1,2.5,0.1c6.7,0,12.5,1.3,17.2,6s7.4,11.2,7.4,17.8
					c0,6.7-2.7,13.1-7.4,17.8c-4.7,4.7-11.6,6.9-18.3,6.9c-0.6,0-0.5,0-0.8,0c-0.1,0-0.3,0-0.4,0l0.2,61.6
					c2.4-4.1,37.1-66.1,37.1-85.9C-149.2,369.5-166.1,353-186.9,352.9z"/>
				<path class="st3" d="M-186.4,365.7c13.3,0,24.1,10.9,24.1,24.3s-10.8,24.2-24.2,24.3l-0.1,61.6c2.3-4.1,37.1-66.1,37.1-85.9
					c0-20.4-16.5-37-36.9-37.1C-186.5,352.9-186.5,365.7-186.4,365.7z"/>
			</g>
		</g>
	</g>
</g>
</svg>
