<?xml version="1.0" encoding="utf-8"?>
<!-- Generator: Adobe Illustrator 18.1.0, SVG Export Plug-In . SVG Version: 6.00 Build 0)  -->
<svg version="1.1" id="Capa_1" xmlns="http://www.w3.org/2000/svg" xmlns:xlink="http://www.w3.org/1999/xlink" x="0px" y="0px"
	 viewBox="-64 -6 512 512" enable-background="new -64 -6 512 512" xml:space="preserve">
<g>
	<circle fill="#E37676" cx="192" cy="250" r="256"/>
	<path fill="#FFFFFF" d="M334.1,285.1c0,36.7-12.2,66.4-48,66.4H101.8c-35.8,0-51.9-29.7-51.9-66.4v-70.2
		c0-36.7,14.5-66.4,50.4-66.4h187.3c35.8,0,46.5,29.7,46.5,66.4V285.1z"/>
	<g>
		<polygon fill="#E37676" points="153.3,208.7 230.7,250 153.3,291.3 		"/>
		<polygon fill="#E37676" points="153.3,209.3 220.6,255.4 230.7,250 159.3,211.9 153.3,209.2 		"/>
	</g>
</g>
</svg>
