<?xml version="1.0" encoding="utf-8"?>
<!-- Generator: Adobe Illustrator 19.0.0, SVG Export Plug-In . SVG Version: 6.00 Build 0)  -->
<svg version="1.1" id="Layer_1" xmlns="http://www.w3.org/2000/svg" xmlns:xlink="http://www.w3.org/1999/xlink" x="0px" y="0px"
	 viewBox="-41 164.9 512 512" style="enable-background:new -41 164.9 512 512;" xml:space="preserve">
<style type="text/css">
	.st0{fill:#FFFFFF;}
</style>
<g>
	<g>
		<path class="st0" d="M457.7,389.1l-60.2-60.2c-24.8-24.8-9.6-50.9,17.4-52.5c44.4-2.8,69.4-50.2,33.1-89.6
			c-39.5-36.2-86.7-11.3-89.4,33c-1.7,27-28,42.2-52.7,17.6L247,178.4c-17.7-17.7-46.3-17.7-64,0l-59.7,59.7
			c-24.8,24.8-51,9.4-52.7-17.6c-2.8-44.4-50.4-69.7-89.8-33.4c-36.4,39.6-11.1,87.2,33.3,89.9c27,1.7,42.3,28,17.7,52.8l-59.5,59.4
			c-17.7,17.7-17.7,46.3,0,64l58.9,58.9c24.8,24.7,10.1,50.4-16.9,52.1c-44.4,2.8-69.3,50.1-33,89.5c39.5,36.3,86.6,11.5,89.3-32.9
			c1.7-27,27.5-41.8,52.3-17.1l59.5,59.5c18,18,47.4,18,65.4,0.1l41.7-41.7l17.9-17.9c23.4-24.4,8.3-50.2-18.4-51.9
			c-44.4-2.8-69.6-50.4-33.3-89.8c39.5-36.3,87.1-11,89.8,33.4c1.7,26.7,27.3,41.7,51.7,18.3l16.2-16.2l43.6-43.6
			c0.1-0.1,0.1-0.1,0.2-0.2l0.6-0.6C475.4,435.4,475.4,406.7,457.7,389.1z"/>
	</g>
</g>
</svg>
